<svg
  xmlns="http://www.w3.org/2000/svg"
  xmlns:xlink="http://www.w3.org/1999/xlink"
  viewBox="0 0 5 18">
      <polygon points="0,12 5,18 5,2 0,2"
        style="stroke:#none; fill: #bbc050"
       />
      <rect 
        x="0"
        y="0"
        width="5"
        height="2"
        style="stroke:none; fill: #00997a"
      />
</svg>