<svg
  xmlns="http://www.w3.org/2000/svg"
  xmlns:xlink="http://www.w3.org/1999/xlink"
  viewBox="0 0 25 25">
    <rect 
      x="6"
      y="0"
      height="17"
      width="13"
      style="stroke:#ff0000; fill: #996030"
    />
    <polygon points="0,15 12,25 25,15"
      style="stroke:#dcd000; fill: #d04040"
     />
</svg>
